[gd_scene load_steps=5 format=2]

[ext_resource path="res://tileset.tres" type="TileSet" id=1]
[ext_resource path="res://MiMovimiento.gd" type="Script" id=2]
[ext_resource path="res://icon.png" type="Texture" id=3]

[sub_resource type="RayShape2D" id=2]
length = 2.70822

[node name="Escena" type="Node"]

[node name="TileMap" type="TileMap" parent="."]
tile_set = ExtResource( 1 )
format = 1
tile_data = PoolIntArray( 262154, 1, 0, 262155, 1, 0, 262156, 1, 0, 262157, 1, 0, 327690, 10, 0, 327691, 10, 0, 327692, 10, 0, 327693, 10, 0, 393216, 0, 0, 393217, 0, 0, 393218, 0, 0, 393219, 0, 0, 393220, 0, 0, 393221, 0, 0, 393222, 0, 0, 393223, 0, 0, 393224, 0, 0, 393225, 0, 0, 393226, 10, 0, 393227, 10, 0, 393228, 10, 0, 393229, 10, 0, 458752, 10, 0, 458753, 10, 0, 458754, 10, 0, 458755, 10, 0, 458756, 10, 0, 458757, 10, 0, 458758, 10, 0, 458759, 10, 0, 458760, 10, 0, 458761, 10, 0, 458762, 10, 0, 458763, 10, 0, 458764, 10, 0, 458765, 10, 0 )

[node name="KinematicBody2D" type="KinematicBody2D" parent="."]
position = Vector2( 195.193, 295.654 )
script = ExtResource( 2 )

[node name="Sprite" type="Sprite" parent="KinematicBody2D"]
position = Vector2( -0.721252, -41.1283 )
scale = Vector2( 16.9505, 3.3069 )
texture = ExtResource( 3 )
vframes = 2
hframes = 16

[node name="Camera2D" type="Camera2D" parent="KinematicBody2D"]
position = Vector2( -5.69548, 0.443268 )
current = true

[node name="CollisionPolygon2D" type="CollisionPolygon2D" parent="KinematicBody2D"]
position = Vector2( 138.6, 143.313 )
scale = Vector2( 0.53125, 1 )
polygon = PoolVector2Array( -230.47, -202.302, -350.659, -138.976, -216.254, -128.638 )

[node name="CollisionShape2D" type="CollisionShape2D" parent="KinematicBody2D"]
position = Vector2( -3.80061, 2.44556 )
shape = SubResource( 2 )
